{
    "pagination": {
        "limit": 20,
        "offset": 0,
        "first": "/v3/users?offset=0&limit=20",
        "previous": null,
        "current": "/v3/users?offset=0&limit=20",
        "next": "/v3/users?offset=20&limit=20",
        "total": 100
    },
    "results": [
        {
            "uri": "/v3/users/puppetlabs",
            "slug": "puppetlabs",
            "gravatar_id": "fdd009b7c1ec96e088b389f773e87aec",
            "username": "puppetlabs",
            "display_name": "Puppet",
            "release_count": 1619,
            "module_count": 178,
            "created_at": "2010-05-19 05:46:26 -0700",
            "updated_at": "2018-09-18 11:46:25 -0700"
        }
    ]
}